my_blog - Exercice 3
…
head(female_athletes$Sport,1)

[1] "Basketball"

Quelle a été cette discipline au cours de chacune des éditions ?

largest_height_by_year <- female_athletes %>%
  group_by(Year) %>%
  top_n(1, Height) %>%
  select(Year, Sport, Height, Name)
largest_height_by_year

# A tibble: 37 × 4
# Groups:   Year [23]
    Year Sport      Height Name                                       
   <int> <chr>       <int> <chr>                                      
 1  2000 Basketball    213 "Magorzata Teresa \"Margo\" Dydek (-Twigg)"
 2  1976 Basketball    210 "Ujana Semjonova"                          
 3  1980 Basketball    210 "Ujana Semjonova"                          
 4  2012 Basketball    206 "Wei Wei"                                  
 5  1984 Basketball    205 "Chen Yuefang"                             
 6  1984 Basketball    205 "Susanna \"Sue\" Geh"                      
 7  1988 Basketball    204 "Zheng Haixia"                             
 8  1992 Basketball    204 "Zheng Haixia"                             
 9  1996 Basketball    204 "Zheng Haixia"                             
10  2016 Basketball    203 "Elizabeth Folake \"Liz\" Cambage"         
# ℹ 27 more rows

Calculez le nombre de fois où chaque discipline a été la discipline avec les plus grandes athlètes.

largest_height_by_year %>%
  count(Sport)

# A tibble: 27 × 3
# Groups:   Year [23]
    Year Sport         n
   <int> <chr>     <int>
 1  1920 Diving        1
 2  1924 Fencing       1
 3  1924 Tennis        1
 4  1928 Fencing       1
 5  1932 Fencing       1
 6  1936 Fencing       1
 7  1948 Athletics     3
 8  1952 Athletics     3
 9  1956 Athletics     1
10  1960 Swimming      2
# ℹ 17 more rows
…
